﻿mratio_vm,mratio_m,mratio_v
0.8769,0.8388,0.1936
1.2251,1.3026,0.7063
1.2983,0.8134,3.4108
-0.1926,-0.528,-0.0828
       NaN,0.1517,0.3952
0.0806,0.0828,0.4058
0.6166,0.4505,0.8484
1.2076,1.1005,1.0523
0.2583,0.1816,0.5941
0.3341,       NaN,0.6118
-0.1264,0.0601,0.1719
0.4216,0.7718,0.3867
1.0898,1.1174,0.6984
0.7475,1.2281,0.343
0.8192,0.707,0.3686
0.6373,0.4693,0.7106
0.9832,1.0015,0.9255
0.7574,0.5922,0.5398
0.5885,0.7543,0.3236
1.5633,1.1941,1.4558
0.6958,0.7283,1.2455
0.6497,0.6644,1.0342
0.844,0.7899,0.1828
0.8368,1.1026,0.9158
       NaN,0.4874,       NaN
       NaN,1.433,-0.2533
0.5565,0.2332,0.4818
0.9135,1.4235,1.1114
0.684,0.5862,0.7343
0.6323,0.106,0.9555
0.7466,0.8609,1.0532
0.1903,       NaN,0.5463
0.8452,0.6304,1.0986
1.1026,0.8568,1.1872
0.3074,-0.018,       NaN
1.3148,0.9582,0.8461
1.0463,1.3615,1.0677
0.6627,1.4116,0.9164
0.2128,       NaN,0
-0.1246,0.849,0.1839
1.7448,1.2456,1.4042