visuomotor,motor
0.625176046463004,0.617391025100424
1.36650458366156,1.2604988454411
1.26448257753264,0.6972089543095
-0.527528370327425,-0.116467897372382
-0.0166368186863013,0.207203101144414
0.656117421919823,0.33855008570357
1.07087459887335,1.00177948488664
0.2470458327506,0.00656084044060103
0.202501653981048,0.750682821072605
0.221465628122506,0.0609998674198716
-0.0161485452505721,0.43054759940495
0.985364096891793,1.11665524568128
0.543521766581204,1.19554703488041
0.821478426602426,0.725440248367215
0.617633790220138,0.547687585270767
0.914331278724784,0.900352589512697
0.589871543564749,0.600147293603994
0.716985163912049,0.86668807863195
1.3245629610567,0.98924493054066
0.592703102942276,0.742920694884061
0.761760792130977,0.764644273388719
0.863147143664494,0.792846483541108
0.763623429194257,0.89328707979335
0.465145357248411,0.248378918778926
0.655083136055604,0.113074671811902
1.09107005664389,1.46337108845159
0.591715189667662,0.568052748972069
0.674185693642884,0.106117193678573
0.785254925514048,0.884363054674144
0.142207064995587,0.749541307543913
0.740188493711177,0.502293395816292
1.16511205798948,0.827109885052216
0.282657864388332,-0.00905612972947978
1.26537165097258,0.86750797499077
0.837880248792949,1.24529465493847
0.539396574961733,1.37958988384874
-0.215609643427041,0.803431059232932
