visuomotor,visual
0.625176046463004,0.376757789466224
1.36650458366156,0.738063465743774
1.26448257753264,0.998143282695371
-0.0166368186863013,-0.0478524045012413
0.656117421919823,0.697377309658809
1.07087459887335,0.907396894140879
0.2470458327506,0.640893751721626
0.202501653981048,0.608599759193881
0.221465628122506,0.180938782460657
0.985364096891793,0.443061560632837
0.543521766581204,0.407047879254329
0.821478426602426,0.341595823442931
0.617633790220138,0.71559275786613
0.914331278724784,0.820407542973373
0.589871543564749,0.502087583852795
0.716985163912049,0.312285613262113
1.3245629610567,1.33683500396456
0.592703102942276,1.22999241892293
0.761760792130977,0.898336327579042
0.863147143664494,0.226774446191766
0.763623429194257,0.807194370726657
0.465145357248411,1.04354216059543
0.655083136055604,0.36453326969793
1.09107005664389,1.0368722931703
0.591715189667662,0.731478140428433
0.674185693642884,1.00040160200198
0.785254925514048,1.03178811062086
0.142207064995587,0.566582311790178
1.16511205798948,1.17378673867166
0.282657864388332,0.453965446371479
1.26537165097258,0.680956455120825
0.837880248792949,1.20551645660103
0.539396574961733,1.33740607605951
0.265815594373944,-0.0808157694905295
-0.215609643427041,0.319382965933565
