visual,motor
0.376757789466224,0.617391025100424
0.738063465743774,1.2604988454411
0.998143282695371,0.6972089543095
-0.257708883313971,-0.430023848125076
-0.0820408380181877,-0.116467897372382
-0.0478524045012413,0.207203101144414
0.697377309658809,0.33855008570357
0.907396894140879,1.00177948488664
0.640893751721626,0.00656084044060103
0.608599759193881,0.750682821072605
0.180938782460657,0.0609998674198716
-0.446028930761619,0.43054759940495
0.443061560632837,1.11665524568128
0.407047879254329,1.19554703488041
0.341595823442931,0.725440248367215
0.71559275786613,0.547687585270767
0.820407542973373,0.900352589512697
0.502087583852795,0.600147293603994
0.312285613262113,0.86668807863195
1.33683500396456,0.98924493054066
1.22999241892293,0.742920694884061
0.898336327579042,0.764644273388719
0.226774446191766,0.792846483541108
0.807194370726657,0.89328707979335
1.04354216059543,0.248378918778926
0.36453326969793,0.113074671811902
1.0368722931703,1.46337108845159
0.731478140428433,0.568052748972069
1.00040160200198,0.106117193678573
1.03178811062086,0.884363054674144
0.566582311790178,0.749541307543913
1.17378673867166,0.827109885052216
0.453965446371479,-0.00905612972947978
0.680956455120825,0.86750797499077
1.20551645660103,1.24529465493847
1.33740607605951,1.37958988384874
0.319382965933565,0.803431059232932
1.53852697350344,1.07876364829538
