visual,motor
0.647921983286829,0.776066671370628
1.75751062065533,0.509295656237376
0.268529150293985,-0.396467252449467
0.554580387745155,0.227869456093207
1.25687311700873,0.21952865428266
0.185196156450702,0.0544691153909285
1.05771753362178,0.619941739917891
0.579463413618872,0.324927861472673
0.0614008044960212,0.0254035020688206
1.15535231180787,0.406991349354954
0.856116345896361,0.72605432550573
1.04325735709218,0.797921757040505
0.333599200739824,0
0.776617179919525,1.53631109560115
0.710838819430077,0.508370775685656
1.12910374458309,1.08001364635174
0.671955805868622,1.21246823761276
1.00689856685574,1.57396702245801
0.946941879384637,1.01400685420675
0.700509560073155,-0.113614255452266
0.783069275591421,0.452773181750858
0.890157939150329,0.806125422369657
0.727746512174428,0.212464990111038
0.768194405008893,0.383499483957705
1.07990230289594,0.48284364488817
0.498592013237437,0.834444841553078
