visuomotor,visual
1.19097260652828,0.69295839127915
1.0744445667804,0.647921983286829
0.702428601587698,0.554580387745155
0.181913760214786,0.185196156450702
0.901337990314466,1.05771753362178
0.370406184216812,0.579463413618872
-0.0895216529277381,0.0614008044960212
1.41333041039827,1.04620583034802
1.41691763666104,1.15535231180787
0.640012381378787,0.856116345896361
0.882949034021332,1.04325735709218
0.753044803500397,0.333599200739824
1.05072133311233,0.776617179919525
0.973845649920919,0.710838819430077
0.972966374394502,1.12910374458309
0.669807695065735,0.375236795123424
0.598162501366134,0.671955805868622
1.04607003944149,1.00689856685574
1.33754561699329,0.946941879384637
0.714916294590796,0.700509560073155
0.775341020585918,0.783069275591421
0.817218077541966,0.890157939150329
0.408200524226176,0.727746512174428
1.1562826309205,0.768194405008893
1.08461939212651,1.07990230289594
0.903334679355067,0.498592013237437
