visual,motor
1.3225299907414,1.13966816166956
1.11504610899994,0.788359314717006
1.50477895158637,1.06835104530622
1.16754252190532,1.10521704949154
1.26009691141994,0.872894353876107
1.44919329400166,0.89483332966523
1.47772530860167,1.13284245930083
1.29651698656417,0.909830614997161
1.20501951038515,0.99222935846051
1.17950034889913,0.941703984041226
1.05383922485996,0.769005711841255
1.35393625556822,0.796723151724437
1.11978855490337,0.967407065517131
1.40232126734631,1.41626033468407
1.45868650068405,1.09544062234156
1.27011255578263,0.983508298392257
1.59838076586254,1.00408954252718
1.36412594277911,0.645409499927731
1.2650884162881,1.09544062234156
1.20292051348414,1.27079393231208
1.30388825047363,0.915225410792178
1.27203177189221,0.572119421905908
1.24877806587436,0.932836206340613
1.40841612771756,0.810854586455434
1.11169514962767,0.696430365797282
1.59287394518874,1.04013297767752
1.18627864484161,0.48296881424033
1.3370894737062,0.879233587698183
