﻿task,condition,mratio
Angles,visuomotor,0.6252
Angles,visuomotor,1.3665
Angles,visuomotor,1.2645
Angles,visuomotor,-0.2522
Angles,visuomotor,-0.5275
Angles,visuomotor,-0.0166
Angles,visuomotor,0.6561
Angles,visuomotor,1.0709
Angles,visuomotor,0.247
Angles,visuomotor,0.2025
Angles,visuomotor,0.2215
Angles,visuomotor,-0.0161
Angles,visuomotor,0.9854
Angles,visuomotor,0.5435
Angles,visuomotor,0.8215
Angles,visuomotor,0.6176
Angles,visuomotor,0.9143
Angles,visuomotor,0.5899
Angles,visuomotor,0.717
Angles,visuomotor,1.3246
Angles,visuomotor,0.5927
Angles,visuomotor,0.7618
Angles,visuomotor,0.8631
Angles,visuomotor,0.7636
Angles,visuomotor,0.4651
Angles,visuomotor,-0.2829
Angles,visuomotor,0.6551
Angles,visuomotor,1.0911
Angles,visuomotor,0.5917
Angles,visuomotor,0.6742
Angles,visuomotor,0.7853
Angles,visuomotor,0.1422
Angles,visuomotor,0.7402
Angles,visuomotor,1.1651
Angles,visuomotor,0.2827
Angles,visuomotor,1.2654
Angles,visuomotor,0.8379
Angles,visuomotor,0.5394
Angles,visuomotor,0.2658
Angles,visuomotor,-0.2156
Angles,visuomotor,NaN
Angles,motor,0.6174
Angles,motor,1.2605
Angles,motor,0.6972
Angles,motor,-0.4300
Angles,motor,-0.1165
Angles,motor,0.2072
Angles,motor,0.3386
Angles,motor,1.0018
Angles,motor,0.0066
Angles,motor,0.7507
Angles,motor,0.0610
Angles,motor,0.4305
Angles,motor,1.1167
Angles,motor,1.1955
Angles,motor,0.7254
Angles,motor,0.5477
Angles,motor,0.9004
Angles,motor,0.6001
Angles,motor,0.8667
Angles,motor,0.9892
Angles,motor,0.7429
Angles,motor,0.7646
Angles,motor,0.7928
Angles,motor,0.8933
Angles,motor,0.2484
Angles,motor,1.4868
Angles,motor,0.1131
Angles,motor,1.4634
Angles,motor,0.5681
Angles,motor,0.1061
Angles,motor,0.8844
Angles,motor,0.7495
Angles,motor,0.5023
Angles,motor,0.8271
Angles,motor,-0.0091
Angles,motor,0.8675
Angles,motor,1.2453
Angles,motor,1.3796
Angles,motor,NaN
Angles,motor,0.8034
Angles,motor,1.0788
Angles,visual,0.3768
Angles,visual,0.7381
Angles,visual,0.9981
Angles,visual,-0.2577
Angles,visual,-0.082
Angles,visual,-0.0479
Angles,visual,0.6974
Angles,visual,0.9074
Angles,visual,0.6409
Angles,visual,0.6086
Angles,visual,0.1809
Angles,visual,-0.446
Angles,visual,0.4431
Angles,visual,0.407
Angles,visual,0.3416
Angles,visual,0.7156
Angles,visual,0.8204
Angles,visual,0.5021
Angles,visual,0.3123
Angles,visual,1.3368
Angles,visual,1.23
Angles,visual,0.8983
Angles,visual,0.2268
Angles,visual,0.8072
Angles,visual,1.0435
Angles,visual,-0.2991
Angles,visual,0.3645
Angles,visual,1.0369
Angles,visual,0.7315
Angles,visual,1.0004
Angles,visual,1.0318
Angles,visual,0.5666
Angles,visual,NaN
Angles,visual,1.1738
Angles,visual,0.454
Angles,visual,0.681
Angles,visual,1.2055
Angles,visual,1.3374
Angles,visual,-0.0808
Angles,visual,0.3194
Angles,visual,1.5385
Traj2,visuomotor,1.191
Traj2,visuomotor,1.0744
Traj2,visuomotor,NaN
Traj2,visuomotor,NaN
Traj2,visuomotor,1.0588
Traj2,visuomotor,-0.6297
Traj2,visuomotor,0.7024
Traj2,visuomotor,0.0885
Traj2,visuomotor,0.1819
Traj2,visuomotor,0.9013
Traj2,visuomotor,0.3704
Traj2,visuomotor,0.7017
Traj2,visuomotor,-0.0895
Traj2,visuomotor,1.4133
Traj2,visuomotor,1.4169
Traj2,visuomotor,0.64
Traj2,visuomotor,0.8829
Traj2,visuomotor,1.1917
Traj2,visuomotor,0.753
Traj2,visuomotor,0.6503
Traj2,visuomotor,1.0507
Traj2,visuomotor,0.9738
Traj2,visuomotor,NaN
Traj2,visuomotor,NaN
Traj2,visuomotor,0.973
Traj2,visuomotor,0.6698
Traj2,visuomotor,0.5982
Traj2,visuomotor,1.0461
Traj2,visuomotor,NaN
Traj2,visuomotor,1.3375
Traj2,visuomotor,0.7149
Traj2,visuomotor,NaN
Traj2,visuomotor,0.7753
Traj2,visuomotor,0.8172
Traj2,visuomotor,0.4082
Traj2,visuomotor,1.1563
Traj2,visuomotor,1.0846
Traj2,visuomotor,0.9033
Traj2,visuomotor,NaN
Traj2,visuomotor,0.5253
Traj2,visuomotor,1.3802
Traj2,motor,NaN
Traj2,motor,0.7761
Traj2,motor,1.0925
Traj2,motor,0.8821
Traj2,motor,0.5093
Traj2,motor,-0.3965
Traj2,motor,0.2279
Traj2,motor,0.2195
Traj2,motor,0.0545
Traj2,motor,0.6199
Traj2,motor,0.3249
Traj2,motor,1.2
Traj2,motor,0.0254
Traj2,motor,NaN
Traj2,motor,0.407
Traj2,motor,0.7261
Traj2,motor,0.7979
Traj2,motor,1.4844
Traj2,motor,0
Traj2,motor,0.5835
Traj2,motor,1.5363
Traj2,motor,0.5084
Traj2,motor,0.7087
Traj2,motor,0.8685
Traj2,motor,1.08
Traj2,motor,NaN
Traj2,motor,1.2125
Traj2,motor,1.574
Traj2,motor,0.637
Traj2,motor,1.014
Traj2,motor,-0.1136
Traj2,motor,NaN
Traj2,motor,0.4528
Traj2,motor,0.8061
Traj2,motor,0.2125
Traj2,motor,0.3835
Traj2,motor,0.4828
Traj2,motor,0.8344
Traj2,motor,NaN
Traj2,motor,0.1896
Traj2,motor,0.7512
Traj2,visual,0.693
Traj2,visual,0.6479
Traj2,visual,NaN
Traj2,visual,NaN
Traj2,visual,1.7575
Traj2,visual,0.2685
Traj2,visual,0.5546
Traj2,visual,1.2569
Traj2,visual,0.1852
Traj2,visual,1.0577
Traj2,visual,0.5795
Traj2,visual,-0.1868
Traj2,visual,0.0614
Traj2,visual,1.0462
Traj2,visual,1.1554
Traj2,visual,0.8561
Traj2,visual,1.0433
Traj2,visual,3.0584
Traj2,visual,0.3336
Traj2,visual,NaN
Traj2,visual,0.7766
Traj2,visual,0.7108
Traj2,visual,NaN
Traj2,visual,2.3937
Traj2,visual,1.1291
Traj2,visual,0.3752
Traj2,visual,0.672
Traj2,visual,1.0069
Traj2,visual,NaN
Traj2,visual,0.9469
Traj2,visual,0.7005
Traj2,visual,NaN
Traj2,visual,0.7831
Traj2,visual,0.8902
Traj2,visual,0.7277
Traj2,visual,0.7682
Traj2,visual,1.0799
Traj2,visual,0.4986
Traj2,visual,1.133
Traj2,visual,NaN
Traj2,visual,NaN
Traj1,visuomotor,1.2643
Traj1,visuomotor,1.0893
Traj1,visuomotor,NaN
Traj1,visuomotor,NaN
Traj1,visuomotor,1.1979
Traj1,visuomotor,NaN
Traj1,visuomotor,0.9091
Traj1,visuomotor,0.4572
Traj1,visuomotor,0.7315
Traj1,visuomotor,0.1963
Traj1,visuomotor,0.953
Traj1,visuomotor,NaN
Traj1,visuomotor,0.4653
Traj1,visuomotor,NaN
Traj1,visuomotor,0.3323
Traj1,visuomotor,1.1518
Traj1,visuomotor,NaN
Traj1,visuomotor,NaN
Traj1,visuomotor,NaN
Traj1,visuomotor,NaN
Traj1,visuomotor,1.0785
Traj1,visuomotor,NaN
Traj1,visuomotor,0.9209
Traj1,visuomotor,0.65
Traj1,visuomotor,NaN
Traj1,visuomotor,1.0549
Traj1,visuomotor,NaN
Traj1,visuomotor,0.8143
Traj1,visuomotor,NaN
Traj1,visuomotor,0.8392
Traj1,visuomotor,0.556
Traj1,visuomotor,1.0814
Traj1,visuomotor,NaN
Traj1,visuomotor,1.0128
Traj1,visuomotor,NaN
Traj1,visuomotor,NaN
Traj1,visuomotor,-0.3497
Traj1,visuomotor,0.6299
Traj1,visuomotor,0.3792
Traj1,visuomotor,NaN
Traj1,motor,1.0266
Traj1,motor,0.444
Traj1,motor,NaN
Traj1,motor,0.6539
Traj1,motor,0.4774
Traj1,motor,0.7613
Traj1,motor,0.2533
Traj1,motor,-0.5155
Traj1,motor,0.1565
Traj1,motor,0.2472
Traj1,motor,0.8243
Traj1,motor,NaN
Traj1,motor,0.3326
Traj1,motor,1.4017
Traj1,motor,0.9753
Traj1,motor,0.7154
Traj1,motor,NaN
Traj1,motor,1.5609
Traj1,motor,0.5861
Traj1,motor,0.8946
Traj1,motor,0.8643
Traj1,motor,1.0795
Traj1,motor,1.6234
Traj1,motor,0.2634
Traj1,motor,0.4108
Traj1,motor,0.2675
Traj1,motor,1.2019
Traj1,motor,NaN
Traj1,motor,0.1727
Traj1,motor,NaN
Traj1,motor,0.9326
Traj1,motor,0.0183
Traj1,motor,0.1893
Traj1,motor,-0.3453
Traj1,motor,0.5313
Traj1,motor,0.8749
Traj1,motor,NaN
Traj1,motor,0.8189
Traj1,motor,0.3827
Traj1,motor,0.1939
Traj1,visual,1.1418
Traj1,visual,0.834
Traj1,visual,0.1485
Traj1,visual,1.2221
Traj1,visual,1.0433
Traj1,visual,NaN
Traj1,visual,0.6595
Traj1,visual,0.0794
Traj1,visual,0.8625
Traj1,visual,0.6226
Traj1,visual,0.6556
Traj1,visual,NaN
Traj1,visual,0.3651
Traj1,visual,0.4917
Traj1,visual,0.5978
Traj1,visual,0.4579
Traj1,visual,NaN
Traj1,visual,0.7501
Traj1,visual,1.1267
Traj1,visual,0.9803
Traj1,visual,-0.2834
Traj1,visual,NaN
Traj1,visual,1.1762
Traj1,visual,0.7624
Traj1,visual,0.664
Traj1,visual,1.2636
Traj1,visual,0.2761
Traj1,visual,-0.4163
Traj1,visual,NaN
Traj1,visual,1.0377
Traj1,visual,0.5525
Traj1,visual,NaN
Traj1,visual,NaN
Traj1,visual,0.6106
Traj1,visual,0.7376
Traj1,visual,1.243
Traj1,visual,0.6069
Traj1,visual,0.6282
Traj1,visual,-0.4464
Traj1,visual,NaN