﻿subject,condition,task,mratio,da,confidence
1,visuomotor,Traj,1.191,1.3015,2.2362
2,visuomotor,Traj,1.0744,2.029,4.925
3,visuomotor,Traj,       NaN,       NaN,       NaN
4,visuomotor,Traj,       NaN,       NaN,       NaN
5,visuomotor,Traj,1.0588,1.5867,4.655
6,visuomotor,Traj,-0.6297,1.5088,4.5628
7,visuomotor,Traj,0.7024,1.6799,4.4286
8,visuomotor,Traj,0.0885,1.5823,3.905
9,visuomotor,Traj,0.1819,2.0889,4.245
10,visuomotor,Traj,0.9013,1.2759,3.99
11,visuomotor,Traj,0.3704,1.1339,3.8744
12,visuomotor,Traj,0.7017,1.3966,3.5663
13,visuomotor,Traj,-0.0895,1.3405,4.9293
14,visuomotor,Traj,1.4133,1.7335,4.9598
15,visuomotor,Traj,1.4169,1.5103,4.4
16,visuomotor,Traj,0.64,1.4218,4.3467
17,visuomotor,Traj,0.8829,1.2798,3.7487
18,visuomotor,Traj,1.1917,1.5776,4.54
19,visuomotor,Traj,0.753,1.1288,4.88
20,visuomotor,Traj,0.6503,1.9838,4.3719
21,visuomotor,Traj,1.0507,1.4086,3.505
22,visuomotor,Traj,0.9738,1.376,3.8737
23,visuomotor,Traj,       NaN,       NaN,       NaN
24,visuomotor,Traj,       NaN,       NaN,       NaN
25,visuomotor,Traj,0.973,1.1717,3.045
26,visuomotor,Traj,0.6698,1.1197,3.89
27,visuomotor,Traj,0.5982,1.1368,4.68
28,visuomotor,Traj,1.0461,1.4722,4.065
29,visuomotor,Traj,       NaN,       NaN,       NaN
30,visuomotor,Traj,1.3375,1.5775,4.965
31,visuomotor,Traj,0.7149,1.147,4.6281
32,visuomotor,Traj,       NaN,       NaN,       NaN
33,visuomotor,Traj,0.7753,1.2769,3.4171
34,visuomotor,Traj,0.8172,1.3093,3.615
35,visuomotor,Traj,0.4082,1.3964,5.18
36,visuomotor,Traj,1.1563,1.3837,3.7424
37,visuomotor,Traj,1.0846,1.3,3.94
38,visuomotor,Traj,0.9033,1.2399,4.55
39,visuomotor,Traj,       NaN,       NaN,       NaN
40,visuomotor,Traj,0.5253,1.9036,4.465
41,visuomotor,Traj,1.3802,1.1955,3.585
1,motor,Traj,       NaN,       NaN,       NaN
2,motor,Traj,0.7761,1.1984,3.1
3,motor,Traj,1.0925,1.4828,4.51
4,motor,Traj,0.8821,1.1223,3.8995
5,motor,Traj,0.5093,0.8836,3.08
6,motor,Traj,-0.3965,1.3873,3.7387
7,motor,Traj,0.2279,1.0971,3.1465
8,motor,Traj,0.2195,1.2755,2.54
9,motor,Traj,0.0545,1.1015,3.785
10,motor,Traj,0.6199,1.0324,3.45
11,motor,Traj,0.3249,1.0772,3.315
12,motor,Traj,1.2,1.0417,3.6294
13,motor,Traj,0.0254,1.1809,4.005
14,motor,Traj,       NaN,       NaN,       NaN
15,motor,Traj,0.407,1.2777,3.0955
16,motor,Traj,0.7261,1.0468,3.125
17,motor,Traj,0.7979,1.2783,3.255
18,motor,Traj,1.4844,0.741,2.93
19,motor,Traj,0,1.1468,3.615
20,motor,Traj,0.5835,1.1825,3.685
21,motor,Traj,1.5363,0.8983,3.405
22,motor,Traj,0.5084,1.2393,3.37
23,motor,Traj,0.7087,1.6791,4.525
24,motor,Traj,0.8685,1.3587,3.775
25,motor,Traj,1.08,0.9259,2.1709
26,motor,Traj,       NaN,       NaN,       NaN
27,motor,Traj,1.2125,1.2042,3.73
28,motor,Traj,1.574,1.0801,4.075
29,motor,Traj,0.637,1.2717,3.615
30,motor,Traj,1.014,1.3018,4.525
31,motor,Traj,-0.1136,1.4963,3.625
32,motor,Traj,       NaN,       NaN,       NaN
33,motor,Traj,0.4528,1.3473,3.18
34,motor,Traj,0.8061,1.104,3.1
35,motor,Traj,0.2125,1.2237,4.725
36,motor,Traj,0.3835,1.1473,2.965
37,motor,Traj,0.4828,1.1598,3.135
38,motor,Traj,0.8344,1.2703,4.1
39,motor,Traj,       NaN,       NaN,       NaN
40,motor,Traj,0.1896,1.635,3.465
41,motor,Traj,0.7512,1.3446,3.03
1,visual,Traj,0.693,1.1833,2.225
2,visual,Traj,0.6479,1.8829,4.34
3,visual,Traj,       NaN,       NaN,       NaN
4,visual,Traj,       NaN,       NaN,       NaN
5,visual,Traj,1.7575,1.6045,4.525
6,visual,Traj,0.2685,1.4524,4.3116
7,visual,Traj,0.5546,1.6769,4.4873
8,visual,Traj,1.2569,1.4003,3.845
9,visual,Traj,0.1852,2.2679,4.175
10,visual,Traj,1.0577,1.1912,3.83
11,visual,Traj,0.5795,0.9319,4.1
12,visual,Traj,-0.1868,1.3916,3.7588
13,visual,Traj,0.0614,1.1401,4.5578
14,visual,Traj,1.0462,1.5198,4.805
15,visual,Traj,1.1554,1.4108,3.545
16,visual,Traj,0.8561,1.3783,3.575
17,visual,Traj,1.0433,1.3036,3.2915
18,visual,Traj,3.0584,1.6349,4.085
19,visual,Traj,0.3336,1.1391,4.26
20,visual,Traj,       NaN,       NaN,       NaN
21,visual,Traj,0.7766,1.5065,3.955
22,visual,Traj,0.7108,1.252,3.4
23,visual,Traj,       NaN,       NaN,       NaN
24,visual,Traj,2.3937,2.0888,4.4
25,visual,Traj,1.1291,1.0805,2.603
26,visual,Traj,0.3752,0.9327,3.365
27,visual,Traj,0.672,1.0715,4.145
28,visual,Traj,1.0069,1.3705,3.815
29,visual,Traj,       NaN,       NaN,       NaN
30,visual,Traj,0.9469,1.4362,4.155
31,visual,Traj,0.7005,1.4133,4.355
32,visual,Traj,       NaN,       NaN,       NaN
33,visual,Traj,0.7831,1.3409,3.195
34,visual,Traj,0.8902,1.2694,3.407
35,visual,Traj,0.7277,1.4016,5.205
36,visual,Traj,0.7682,1.6793,3.35
37,visual,Traj,1.0799,1.2594,3.695
38,visual,Traj,0.4986,1.1833,4.12
39,visual,Traj,1.133,1.6329,5.115
40,visual,Traj,       NaN,       NaN,       NaN
41,visual,Traj,       NaN,       NaN,       NaN
1,visuomotor,Angles,0.6252,1.1197,4.235
2,visuomotor,Angles,1.3665,1.2953,3.99
3,visuomotor,Angles,1.2645,1.2574,4.9598
4,visuomotor,Angles,-0.2522,1.0309,2.9548
5,visuomotor,Angles,-0.5275,0.8341,3.82
6,visuomotor,Angles,-0.0166,1.2022,3.81
7,visuomotor,Angles,0.6561,1.1431,4.3317
8,visuomotor,Angles,1.0709,1.2046,3.3266
9,visuomotor,Angles,0.247,1.2548,3.98
10,visuomotor,Angles,0.2025,1.1358,3.72
11,visuomotor,Angles,0.2215,1.1288,3.325
12,visuomotor,Angles,-0.0161,1.2385,4.665
13,visuomotor,Angles,0.9854,1.0554,4.885
14,visuomotor,Angles,0.5435,1.1959,3.845
15,visuomotor,Angles,0.8215,1.1443,3.565
16,visuomotor,Angles,0.6176,1.2791,3.995
17,visuomotor,Angles,0.9143,1.2577,3.65
18,visuomotor,Angles,0.5899,1.2376,4.245
19,visuomotor,Angles,0.717,1.1855,4.4271
20,visuomotor,Angles,1.3246,1.1853,3.57
21,visuomotor,Angles,0.5927,1.181,4.0955
22,visuomotor,Angles,0.7618,1.1946,4.035
23,visuomotor,Angles,0.8631,1.1354,4
24,visuomotor,Angles,0.7636,1.1655,4.89
25,visuomotor,Angles,0.4651,1.2469,4.8889
26,visuomotor,Angles,-0.2829,0.9543,4.3228
27,visuomotor,Angles,0.6551,1.1907,4.15
28,visuomotor,Angles,1.0911,1.2007,4.45
29,visuomotor,Angles,0.5917,1.2168,4.1106
30,visuomotor,Angles,0.6742,1.3498,4.035
31,visuomotor,Angles,0.7853,1.1079,4.135
32,visuomotor,Angles,0.1422,1.1251,5.365
33,visuomotor,Angles,0.7402,1.2159,3.04
34,visuomotor,Angles,1.1651,1.1501,3.845
35,visuomotor,Angles,0.2827,1.1321,4.575
36,visuomotor,Angles,1.2654,1.0906,3.24
37,visuomotor,Angles,0.8379,1.1816,3.8945
38,visuomotor,Angles,0.5394,1.1494,4.197
39,visuomotor,Angles,0.2658,1.1662,4.98
40,visuomotor,Angles,-0.2156,1.345,4.206
41,visuomotor,Angles,       NaN,       NaN,       NaN
1,motor,Angles,0.6174,1.1662,4.05
2,motor,Angles,1.2605,1.2297,3.79
3,motor,Angles,0.6972,1.3482,5.095
4,motor,Angles,-0.43,1.1162,3.2589
5,motor,Angles,-0.1165,0.9445,3.44
6,motor,Angles,0.2072,1.2065,3.755
7,motor,Angles,0.3386,1.1815,3.965
8,motor,Angles,1.0018,1.2578,3.197
9,motor,Angles,0.0066,1.5242,3.905
10,motor,Angles,0.7507,1.2788,3.57
11,motor,Angles,0.061,0.9836,3.76
12,motor,Angles,0.4305,1.1381,4.45
13,motor,Angles,1.1167,1.1105,4.715
14,motor,Angles,1.1955,1.1125,3.875
15,motor,Angles,0.7254,1.089,3.235
16,motor,Angles,0.5477,1.4424,3.9196
17,motor,Angles,0.9004,1.0885,3.4975
18,motor,Angles,0.6001,1.183,4.0402
19,motor,Angles,0.8667,1.2577,4.3
20,motor,Angles,0.9892,1.2939,3.405
21,motor,Angles,0.7429,1.346,3.95
22,motor,Angles,0.7646,1.4517,3.8454
23,motor,Angles,0.7928,1.0721,4.1
24,motor,Angles,0.8933,1.1978,4.735
25,motor,Angles,0.2484,1.3286,4.515
26,motor,Angles,1.4868,0.7735,4.0377
27,motor,Angles,0.1131,1.1497,4.22
28,motor,Angles,1.4634,1.1754,4.2312
29,motor,Angles,0.5681,1.3907,4.0201
30,motor,Angles,0.1061,1.4135,4.0408
31,motor,Angles,0.8844,1.1986,4.445
32,motor,Angles,0.7495,1.1073,5.42
33,motor,Angles,0.5023,1.1348,3.2
34,motor,Angles,0.8271,1.2211,3.515
35,motor,Angles,-0.0091,1.1042,4.425
36,motor,Angles,0.8675,1.2449,3.01
37,motor,Angles,1.2453,1.1804,3.62
38,motor,Angles,1.3796,1.051,3.86
39,motor,Angles,       NaN,       NaN,       NaN
40,motor,Angles,0.8034,1.2198,4.0302
41,motor,Angles,1.0788,1.4461,3.225
1,visual,Angles,0.3768,1.0882,3.09
2,visual,Angles,0.7381,1.3143,3.8141
3,visual,Angles,0.9981,1.3124,4.77
4,visual,Angles,-0.2577,1.2805,3.2161
5,visual,Angles,-0.082,0.7313,3.13
6,visual,Angles,-0.0479,1.0449,3.68
7,visual,Angles,0.6974,1.0468,4.9594
8,visual,Angles,0.9074,1.2343,3.4061
9,visual,Angles,0.6409,1.2951,3.865
10,visual,Angles,0.6086,1.068,3.63
11,visual,Angles,0.1809,0.829,3.44
12,visual,Angles,-0.446,1.2779,4.37
13,visual,Angles,0.4431,1.0834,4.955
14,visual,Angles,0.407,1.2284,3.465
15,visual,Angles,0.3416,1.3466,2.755
16,visual,Angles,0.7156,1.1739,3.5678
17,visual,Angles,0.8204,1.1214,3.815
18,visual,Angles,0.5021,1.1552,4.7186
19,visual,Angles,0.3123,1.2168,4.335
20,visual,Angles,1.3368,1.2642,3.075
21,visual,Angles,1.23,1.252,3.895
22,visual,Angles,0.8983,1.3358,3.5303
23,visual,Angles,0.2268,1.1906,3.86
24,visual,Angles,0.8072,1.0654,4.57
25,visual,Angles,1.0435,1.2553,4.8325
26,visual,Angles,-0.2991,0.769,4.1875
27,visual,Angles,0.3645,1.1247,4.05
28,visual,Angles,1.0369,1.1959,4.24
29,visual,Angles,0.7315,1.2577,3.455
30,visual,Angles,1.0004,1.1995,3.86
31,visual,Angles,1.0318,1.1049,3.8
32,visual,Angles,0.5666,1.2884,5.07
33,visual,Angles,       NaN,       NaN,       NaN
34,visual,Angles,1.1738,1.1331,3.97
35,visual,Angles,0.454,1.1234,4.64
36,visual,Angles,0.681,1.1014,3.345
37,visual,Angles,1.2055,1.1696,3.545
38,visual,Angles,1.3374,1.0094,4.5303
39,visual,Angles,-0.0808,0.9899,5.215
40,visual,Angles,0.3194,1.5029,4.045
41,visual,Angles,1.5385,1.3194,3.195